Random Seed Group Lasso Cross-Validation
…
## See spec(...) for full column specifications.

data_lasso = study_pop %>% 
  mutate_at(vars(contains("la")), log) %>% 
  mutate(log_telomean = log(telomean)) %>% 
  dplyr::select(log_telomean, lbx074la:lbx187la, lbxd03la:lbx194la, everything(), -seqn, -telomean) %>% 
  na.omit(log_telomean)

data_lasso

## # A tibble: 1,003 x 32
##    log_telomean lbx074la lbx099la lbx118la lbx138la lbx153la lbx170la
##           <dbl>    <dbl>    <dbl>    <dbl>    <dbl>    <dbl>    <dbl>
##  1      -0.320      11.8    11.7      12.7     13.1     13.5     12.0
##  2      -0.239      11.0    11.1      11.4     12.2     12.6     11.2
##  3      -0.327      11.9    10.5      11.2     12.3     12.4     11.2
##  4      -0.122      11.1    11.0      11.5     12.2     12.6     11.0
##  5       0.279      10.9    10.6      10.6     12.3     12.5     11.2
##  6      -0.336      11.0    11.1      11.5     12.3     12.4     10.8
##  7      -0.106      10.9    10.7      10.7     11.9     12.5     11.3
##  8      -0.0450     11.0     9.74     10.8     11.9     12.3     11.4
##  9      -0.182      10.7    10.2      11.2     12.1     12.4     11.3
## 10      -0.641      10.8    10.8      10.2     12.3     12.4     11.1
## #  with 993 more rows, and 25 more variables: lbx180la <dbl>,
## #   lbx187la <dbl>, lbxd03la <dbl>, lbxd05la <dbl>, lbxd07la <dbl>,
## #   lbxf03la <dbl>, lbxf04la <dbl>, lbxf05la <dbl>, lbxf08la <dbl>,
## #   lbxpcbla <dbl>, lbxhxcla <dbl>, lbx194la <dbl>, lbxwbcsi <dbl>,
## #   lbxlypct <dbl>, lbxmopct <dbl>, lbxnepct <dbl>, lbxeopct <dbl>,
## #   lbxbapct <dbl>, bmi_cat3 <fct>, edu_cat <fct>, race_cat <fct>,
## #   male <fct>, ln_lbxcot <dbl>, age_cent <dbl>, age_sq <dbl>
…
